date,code,name,type,amount,cost
2019-12-21, A1, productA1, 1, 25, 2200
2019-12-22, B1, productB1, 2, 6, 500.00
2019-12-23, C1, productC1, 3, 7, 1000
2019-12-24, D1, productD1, 4, 14, 898.56
2019-12-27, B1, productB1, 2, 12, 600.00